<?xml version="1.0" encoding="UTF-8" standalone="no"?>
<!-- Created with Inkscape (http://www.inkscape.org/) -->

<svg
   width="118.69mm"
   height="118.98799mm"
   viewBox="0 0 118.69 118.98799"
   version="1.1"
   id="svg5"
   xmlns="http://www.w3.org/2000/svg"
   xmlns:svg="http://www.w3.org/2000/svg">
  <defs
     id="defs2" />
  <g
     id="layer1"
     transform="translate(492.31665,-68.837451)">
    <circle
       style="fill:none;stroke:#f36d02;stroke-width:5;stroke-linecap:square;stroke-linejoin:round;stroke-dasharray:none;stroke-opacity:1;paint-order:stroke fill markers;stop-color:#000000"
       id="ellipse1971"
       cx="-433.62665"
       cy="128.23744"
       r="56" />
    <ellipse
       style="fill:none;stroke:#f36d02;stroke-width:5;stroke-linecap:square;stroke-linejoin:round;stroke-dasharray:none;stroke-opacity:1;paint-order:stroke fill markers;stop-color:#000000"
       id="ellipse3198"
       cx="-433.62665"
       cy="128.23744"
       rx="24.582813"
       ry="24.730204" />
  </g>
</svg>
