<?xml version="1.0" encoding="UTF-8" standalone="no"?>
<!-- Created with Inkscape (http://www.inkscape.org/) -->

<svg
   width="119.14989mm"
   height="118.71021mm"
   viewBox="0 0 119.14989 118.71021"
   version="1.1"
   id="svg5"
   xmlns="http://www.w3.org/2000/svg"
   xmlns:svg="http://www.w3.org/2000/svg">
  <defs
     id="defs2" />
  <g
     id="layer1"
     transform="translate(667.09929,-68.998644)">
    <path
       style="fill:none;stroke:#f36d02;stroke-width:5;stroke-linecap:square;stroke-linejoin:round;stroke-dasharray:none;stroke-opacity:1;paint-order:stroke fill markers;stop-color:#000000"
       d="M -607.94627,72.398643 V 179.19723"
       id="path663" />
    <path
       style="fill:none;stroke:#f36d02;stroke-width:5;stroke-linecap:square;stroke-linejoin:round;stroke-dasharray:none;stroke-opacity:1;paint-order:stroke fill markers;stop-color:#000000"
       d="m -662.29976,137.07152 54.35349,47.32725 v 0 l 54.35349,-47.32725"
       id="path665" />
  </g>
</svg>
